[
{
  "model": "symposion_conference.section",
  "pk": 1,
  "fields": {
    "conference": 1,
    "name": "Main Conference",
    "slug": "main",
    "start_date": "2025-01-20",
    "end_date": "2025-01-22"
  }
}
]
